<?xml version="1.0" encoding="utf-8"?>
<!-- Generator: Adobe Illustrator 16.0.0, SVG Export Plug-In . SVG Version: 6.00 Build 0)  -->
<!DOCTYPE svg PUBLIC "-//W3C//DTD SVG 1.1//EN" "http://www.w3.org/Graphics/SVG/1.1/DTD/svg11.dtd">
<svg version="1.1" id="Layer_1" xmlns="http://www.w3.org/2000/svg" xmlns:xlink="http://www.w3.org/1999/xlink" x="0px" y="0px"
	 width="13.372px" height="7.797px" viewBox="0 0 13.372 7.797" enable-background="new 0 0 13.372 7.797" xml:space="preserve">
<g>
	<path fill="#989898" d="M13.372,1.112c0,0.116-0.045,0.219-0.134,0.308L6.994,7.664C6.905,7.752,6.802,7.797,6.687,7.797
		c-0.116,0-0.22-0.045-0.309-0.134L0.135,1.42C0.045,1.331,0,1.228,0,1.112c0-0.116,0.045-0.219,0.135-0.308l0.67-0.67
		C0.894,0.044,0.996,0,1.112,0s0.219,0.044,0.309,0.134l5.266,5.266l5.266-5.266C12.041,0.044,12.144,0,12.26,0
		s0.219,0.044,0.309,0.134l0.67,0.67C13.327,0.893,13.372,0.996,13.372,1.112z"/>
</g>
</svg>
